R数据科学第9章
…
9.1简介

合并连接

筛选连接

集合操作

library(tidyverse)
library(nycflights13)
library(maps)
flights

## # A tibble: 336,776 x 19
##     year month   day dep_time sched_dep_time dep_delay
##    <int> <int> <int>    <int>          <int>     <dbl>
##  1  2013     1     1      517            515         2
##  2  2013     1     1      533            529         4
##  3  2013     1     1      542            540         2
##  4  2013     1     1      544            545        -1
##  5  2013     1     1      554            600        -6
##  6  2013     1     1      554            558        -4
##  7  2013     1     1      555            600        -5
##  8  2013     1     1      557            600        -3
##  9  2013     1     1      557            600        -3
## 10  2013     1     1      558            600        -2
## # ... with 336,766 more rows, and 13 more variables:
## #   arr_time <int>, sched_arr_time <int>,
## #   arr_delay <dbl>, carrier <chr>, flight <int>,
## #   tailnum <chr>, origin <chr>, dest <chr>,
## #   air_time <dbl>, distance <dbl>, hour <dbl>,
## #   minute <dbl>, time_hour <dttm>
…
airports

## # A tibble: 1,458 x 8
##    faa   name      lat    lon   alt    tz dst   tzone 
##    <chr> <chr>   <dbl>  <dbl> <dbl> <dbl> <chr> <chr> 
##  1 04G   Lansdo~  41.1  -80.6  1044    -5 A     Ameri~
##  2 06A   Moton ~  32.5  -85.7   264    -6 A     Ameri~
##  3 06C   Schaum~  42.0  -88.1   801    -6 A     Ameri~
##  4 06N   Randal~  41.4  -74.4   523    -5 A     Ameri~
##  5 09J   Jekyll~  31.1  -81.4    11    -5 A     Ameri~
##  6 0A9   Elizab~  36.4  -82.2  1593    -5 A     Ameri~
##  7 0G6   Willia~  41.5  -84.5   730    -5 A     Ameri~
##  8 0G7   Finger~  42.9  -76.8   492    -5 A     Ameri~
##  9 0P2   Shoest~  39.8  -76.6  1000    -5 U     Ameri~
## 10 0S9   Jeffer~  48.1 -123.    108    -8 A     Ameri~
## # ... with 1,448 more rows

planes

## # A tibble: 3,322 x 9
##    tailnum  year type      manufacturer  model engines
##    <chr>   <int> <chr>     <chr>         <chr>   <int>
##  1 N10156   2004 Fixed wi~ EMBRAER       EMB-~       2
##  2 N102UW   1998 Fixed wi~ AIRBUS INDUS~ A320~       2
##  3 N103US   1999 Fixed wi~ AIRBUS INDUS~ A320~       2
##  4 N104UW   1999 Fixed wi~ AIRBUS INDUS~ A320~       2
##  5 N10575   2002 Fixed wi~ EMBRAER       EMB-~       2
##  6 N105UW   1999 Fixed wi~ AIRBUS INDUS~ A320~       2
##  7 N107US   1999 Fixed wi~ AIRBUS INDUS~ A320~       2
##  8 N108UW   1999 Fixed wi~ AIRBUS INDUS~ A320~       2
##  9 N109UW   1999 Fixed wi~ AIRBUS INDUS~ A320~       2
## 10 N110UW   1999 Fixed wi~ AIRBUS INDUS~ A320~       2
## # ... with 3,312 more rows, and 3 more variables:
## #   seats <int>, speed <int>, engine <chr>

weather

## # A tibble: 26,115 x 15
##    origin  year month   day  hour  temp  dewp humid
##    <chr>  <int> <int> <int> <int> <dbl> <dbl> <dbl>
##  1 EWR     2013     1     1     1  39.0  26.1  59.4
##  2 EWR     2013     1     1     2  39.0  27.0  61.6
##  3 EWR     2013     1     1     3  39.0  28.0  64.4
##  4 EWR     2013     1     1     4  39.9  28.0  62.2
##  5 EWR     2013     1     1     5  39.0  28.0  64.4
##  6 EWR     2013     1     1     6  37.9  28.0  67.2
##  7 EWR     2013     1     1     7  39.0  28.0  64.4
##  8 EWR     2013     1     1     8  39.9  28.0  62.2
##  9 EWR     2013     1     1     9  39.9  28.0  62.2
## 10 EWR     2013     1     1    10  41    28.0  59.6
## # ... with 26,105 more rows, and 7 more variables:
## #   wind_dir <dbl>, wind_speed <dbl>,
## #   wind_gust <dbl>, precip <dbl>, pressure <dbl>,
## #   visib <dbl>, time_hour <dttm>
…
## # A tibble: 3 x 6
##    year month   day  hour origin     n
##   <int> <int> <int> <int> <chr>  <int>
## 1  2013    11     3     1 EWR        2
## 2  2013    11     3     1 JFK        2
## 3  2013    11     3     1 LGA        2

flights %>%
  count(year, month, day, tailnum) %>%
  filter(n > 1)

## # A tibble: 64,928 x 5
##     year month   day tailnum     n
##    <int> <int> <int> <chr>   <int>
##  1  2013     1     1 N0EGMQ      2
##  2  2013     1     1 N11189      2
##  3  2013     1     1 N11536      2
##  4  2013     1     1 N11544      3
##  5  2013     1     1 N11551      2
##  6  2013     1     1 N12540      2
##  7  2013     1     1 N12567      2
##  8  2013     1     1 N13123      2
##  9  2013     1     1 N13538      3
## 10  2013     1     1 N13566      3
## # ... with 64,918 more rows
…
合并连接

flights2 <- flights %>%
  select(year:day, hour, origin, dest, tailnum, carrier)

flights2 %>%
  select(-origin, -dest) %>%
  left_join(airlines, by = "carrier")

## # A tibble: 336,776 x 7
##     year month   day  hour tailnum carrier name       
##    <int> <int> <int> <dbl> <chr>   <chr>   <chr>      
##  1  2013     1     1     5 N14228  UA      United Air~
##  2  2013     1     1     5 N24211  UA      United Air~
##  3  2013     1     1     5 N619AA  AA      American A~
##  4  2013     1     1     5 N804JB  B6      JetBlue Ai~
##  5  2013     1     1     6 N668DN  DL      Delta Air ~
##  6  2013     1     1     5 N39463  UA      United Air~
##  7  2013     1     1     6 N516JB  B6      JetBlue Ai~
##  8  2013     1     1     6 N829AS  EV      ExpressJet~
##  9  2013     1     1     6 N593JB  B6      JetBlue Ai~
## 10  2013     1     1     6 N3ALAA  AA      American A~
## # ... with 336,766 more rows

flights2 %>%
  select(-origin, -dest) %>%
  mutate(name = airlines$name[match(carrier, airlines$carrier)])

## # A tibble: 336,776 x 7
##     year month   day  hour tailnum carrier name       
##    <int> <int> <int> <dbl> <chr>   <chr>   <chr>      
##  1  2013     1     1     5 N14228  UA      United Air~
##  2  2013     1     1     5 N24211  UA      United Air~
##  3  2013     1     1     5 N619AA  AA      American A~
##  4  2013     1     1     5 N804JB  B6      JetBlue Ai~
##  5  2013     1     1     6 N668DN  DL      Delta Air ~
##  6  2013     1     1     5 N39463  UA      United Air~
##  7  2013     1     1     6 N516JB  B6      JetBlue Ai~
##  8  2013     1     1     6 N829AS  EV      ExpressJet~
##  9  2013     1     1     6 N593JB  B6      JetBlue Ai~
## 10  2013     1     1     6 N3ALAA  AA      American A~
## # ... with 336,766 more rows
…
merge(x, y, all.x = TRUE, all.y = TRUE)

##   key val_x val_y
## 1   1    x1    y1
## 2   2    x2    y2
## 3   3    x3  <NA>
## 4   4  <NA>    y3

#by的默认值by = NULL,这会使用存在于两个表中的所有变量，这种方式称为自然连接。
flights2 %>%
  left_join(weather)

## Joining, by = c("year", "month", "day", "hour", "origin")

## # A tibble: 336,776 x 18
##     year month   day  hour origin dest  tailnum
##    <int> <int> <int> <dbl> <chr>  <chr> <chr>  
##  1  2013     1     1     5 EWR    IAH   N14228 
##  2  2013     1     1     5 LGA    IAH   N24211 
##  3  2013     1     1     5 JFK    MIA   N619AA 
##  4  2013     1     1     5 JFK    BQN   N804JB 
##  5  2013     1     1     6 LGA    ATL   N668DN 
##  6  2013     1     1     5 EWR    ORD   N39463 
##  7  2013     1     1     6 EWR    FLL   N516JB 
##  8  2013     1     1     6 LGA    IAD   N829AS 
##  9  2013     1     1     6 JFK    MCO   N593JB 
## 10  2013     1     1     6 LGA    ORD   N3ALAA 
## # ... with 336,766 more rows, and 11 more variables:
## #   carrier <chr>, temp <dbl>, dewp <dbl>,
## #   humid <dbl>, wind_dir <dbl>, wind_speed <dbl>,
## #   wind_gust <dbl>, precip <dbl>, pressure <dbl>,
## #   visib <dbl>, time_hour <dttm>

#by = "x",只使用某些公共变量。
flights2 %>%
  left_join(planes, by = "tailnum")

## # A tibble: 336,776 x 16
##    year.x month   day  hour origin dest  tailnum
##     <int> <int> <int> <dbl> <chr>  <chr> <chr>  
##  1   2013     1     1     5 EWR    IAH   N14228 
##  2   2013     1     1     5 LGA    IAH   N24211 
##  3   2013     1     1     5 JFK    MIA   N619AA 
##  4   2013     1     1     5 JFK    BQN   N804JB 
##  5   2013     1     1     6 LGA    ATL   N668DN 
##  6   2013     1     1     5 EWR    ORD   N39463 
##  7   2013     1     1     6 EWR    FLL   N516JB 
##  8   2013     1     1     6 LGA    IAD   N829AS 
##  9   2013     1     1     6 JFK    MCO   N593JB 
## 10   2013     1     1     6 LGA    ORD   N3ALAA 
## # ... with 336,766 more rows, and 9 more variables:
## #   carrier <chr>, year.y <int>, type <chr>,
## #   manufacturer <chr>, model <chr>, engines <int>,
## #   seats <int>, speed <int>, engine <chr>

#命名字符向量by = c("a" = "b")，匹配x表中的a变量和y表中的b变量。输出结果中使用的是x表中的变量。
flights2 %>%
  left_join(airports, c("dest" = "faa"))

## # A tibble: 336,776 x 15
##     year month   day  hour origin dest  tailnum
##    <int> <int> <int> <dbl> <chr>  <chr> <chr>  
##  1  2013     1     1     5 EWR    IAH   N14228 
##  2  2013     1     1     5 LGA    IAH   N24211 
##  3  2013     1     1     5 JFK    MIA   N619AA 
##  4  2013     1     1     5 JFK    BQN   N804JB 
##  5  2013     1     1     6 LGA    ATL   N668DN 
##  6  2013     1     1     5 EWR    ORD   N39463 
##  7  2013     1     1     6 EWR    FLL   N516JB 
##  8  2013     1     1     6 LGA    IAD   N829AS 
##  9  2013     1     1     6 JFK    MCO   N593JB 
## 10  2013     1     1     6 LGA    ORD   N3ALAA 
## # ... with 336,766 more rows, and 8 more variables:
## #   carrier <chr>, name <chr>, lat <dbl>, lon <dbl>,
## #   alt <dbl>, tz <dbl>, dst <chr>, tzone <chr>

flights %>%
  left_join(airports, c("origin" = "faa"))

## # A tibble: 336,776 x 26
##     year month   day dep_time sched_dep_time dep_delay
##    <int> <int> <int>    <int>          <int>     <dbl>
##  1  2013     1     1      517            515         2
##  2  2013     1     1      533            529         4
##  3  2013     1     1      542            540         2
##  4  2013     1     1      544            545        -1
##  5  2013     1     1      554            600        -6
##  6  2013     1     1      554            558        -4
##  7  2013     1     1      555            600        -5
##  8  2013     1     1      557            600        -3
##  9  2013     1     1      557            600        -3
## 10  2013     1     1      558            600        -2
## # ... with 336,766 more rows, and 20 more variables:
## #   arr_time <int>, sched_arr_time <int>,
## #   arr_delay <dbl>, carrier <chr>, flight <int>,
## #   tailnum <chr>, origin <chr>, dest <chr>,
## #   air_time <dbl>, distance <dbl>, hour <dbl>,
## #   minute <dbl>, time_hour <dttm>, name <chr>,
## #   lat <dbl>, lon <dbl>, alt <dbl>, tz <dbl>,
## #   dst <chr>, tzone <chr>
…
flights %>%
  select(year:day, hour, origin, dest) %>%
  left_join(
    airport_loc,
    by = c("origin" = "faa")
  ) %>%
  left_join(
    airport_loc,
    by = c("dest" = "faa"),
    suffix = c("_origin", "_dest")
  )

## # A tibble: 336,776 x 10
##     year month   day  hour origin dest  lat_origin
##    <int> <int> <int> <dbl> <chr>  <chr>      <dbl>
##  1  2013     1     1     5 EWR    IAH         40.7
##  2  2013     1     1     5 LGA    IAH         40.8
##  3  2013     1     1     5 JFK    MIA         40.6
##  4  2013     1     1     5 JFK    BQN         40.6
##  5  2013     1     1     6 LGA    ATL         40.8
##  6  2013     1     1     5 EWR    ORD         40.7
##  7  2013     1     1     6 EWR    FLL         40.7
##  8  2013     1     1     6 LGA    IAD         40.8
##  9  2013     1     1     6 JFK    MCO         40.6
## 10  2013     1     1     6 LGA    ORD         40.8
## # ... with 336,766 more rows, and 3 more variables:
## #   lon_origin <dbl>, lat_dest <dbl>, lon_dest <dbl>
…
  mutate(year.y = 2013 - year.y) %>%
  rename(age = year.y) %>%
  filter(!is.na(age)) %>%
  group_by(age) %>%
  summarise(
    dep_delay_mean = mean(dep_delay, na.rm = TRUE),
    dep_delay_sd = sd(dep_delay, na.rm = TRUE),
    arr_delay_mean = mean(arr_delay, na.rm = TRUE),
    arr_delay_sd = sd(arr_delay, na.rm = TRUE),
    n_arr_delay = sum(!is.na(arr_delay)),
    n_dep_delay = sum(!is.na(dep_delay))
  )
pl

## # A tibble: 46 x 7
##      age dep_delay_mean dep_delay_sd arr_delay_mean
##  * <dbl>          <dbl>        <dbl>          <dbl>
##  1     0          10.6          34.4           4.01
##  2     1           9.64         31.9           2.85
##  3     2          11.8          41.8           5.70
##  4     3          12.5          37.5           5.18
##  5     4          11.0          35.5           4.92
##  6     5          13.2          39.6           5.57
##  7     6          13.7          41.4           7.54
##  8     7          14.6          41.3           9.90
##  9     8          14.7          41.5           9.80
## 10     9          16.4          44.2          10.2 
## # ... with 36 more rows, and 3 more variables:
## #   arr_delay_sd <dbl>, n_arr_delay <int>,
## #   n_dep_delay <int>
…
flights %>%
  filter(dest %in% top_dest$dest)

## # A tibble: 141,145 x 19
##     year month   day dep_time sched_dep_time dep_delay
##    <int> <int> <int>    <int>          <int>     <dbl>
##  1  2013     1     1      542            540         2
##  2  2013     1     1      554            600        -6
##  3  2013     1     1      554            558        -4
##  4  2013     1     1      555            600        -5
##  5  2013     1     1      557            600        -3
##  6  2013     1     1      558            600        -2
##  7  2013     1     1      558            600        -2
##  8  2013     1     1      558            600        -2
##  9  2013     1     1      559            559         0
## 10  2013     1     1      600            600         0
## # ... with 141,135 more rows, and 13 more variables:
## #   arr_time <int>, sched_arr_time <int>,
## #   arr_delay <dbl>, carrier <chr>, flight <int>,
## #   tailnum <chr>, origin <chr>, dest <chr>,
## #   air_time <dbl>, distance <dbl>, hour <dbl>,
## #   minute <dbl>, time_hour <dttm>

flights %>%
  semi_join(top_dest)

## Joining, by = "dest"

## # A tibble: 141,145 x 19
##     year month   day dep_time sched_dep_time dep_delay
##    <int> <int> <int>    <int>          <int>     <dbl>
##  1  2013     1     1      542            540         2
##  2  2013     1     1      554            600        -6
##  3  2013     1     1      554            558        -4
##  4  2013     1     1      555            600        -5
##  5  2013     1     1      557            600        -3
##  6  2013     1     1      558            600        -2
##  7  2013     1     1      558            600        -2
##  8  2013     1     1      558            600        -2
##  9  2013     1     1      559            559         0
## 10  2013     1     1      600            600         0
## # ... with 141,135 more rows, and 13 more variables:
## #   arr_time <int>, sched_arr_time <int>,
## #   arr_delay <dbl>, carrier <chr>, flight <int>,
## #   tailnum <chr>, origin <chr>, dest <chr>,
## #   air_time <dbl>, distance <dbl>, hour <dbl>,
## #   minute <dbl>, time_hour <dttm>

flights %>%
  anti_join(planes, by = "tailnum") %>%
  count(tailnum, sort = TRUE)

## # A tibble: 722 x 2
##    tailnum     n
##    <chr>   <int>
##  1 <NA>     2512
##  2 N725MQ    575
##  3 N722MQ    513
##  4 N723MQ    507
##  5 N713MQ    483
##  6 N735MQ    396
##  7 N0EGMQ    371
##  8 N534MQ    364
##  9 N542MQ    363
## 10 N531MQ    349
## # ... with 712 more rows
…
(2) 对航班信息进行筛选，只保留至少有100 次飞行记录的飞机的航班信息。

pl100 <- flights %>%
  count(tailnum) %>%
  filter(n >= 100)

flights %>%
  semi_join(pl100, by = "tailnum")

## # A tibble: 230,902 x 19
##     year month   day dep_time sched_dep_time dep_delay
##    <int> <int> <int>    <int>          <int>     <dbl>
##  1  2013     1     1      517            515         2
##  2  2013     1     1      533            529         4
##  3  2013     1     1      544            545        -1
##  4  2013     1     1      554            558        -4
##  5  2013     1     1      555            600        -5
##  6  2013     1     1      557            600        -3
##  7  2013     1     1      557            600        -3
##  8  2013     1     1      558            600        -2
##  9  2013     1     1      558            600        -2
## 10  2013     1     1      558            600        -2
## # ... with 230,892 more rows, and 13 more variables:
## #   arr_time <int>, sched_arr_time <int>,
## #   arr_delay <dbl>, carrier <chr>, flight <int>,
## #   tailnum <chr>, origin <chr>, dest <chr>,
## #   air_time <dbl>, distance <dbl>, hour <dbl>,
## #   minute <dbl>, time_hour <dttm>
…
anti_join(flights, airports, by = c("dest" = "faa")) %>% distinct(dest)

## # A tibble: 4 x 1
##   dest 
##   <chr>
## 1 BQN  
## 2 SJU  
## 3 STT  
## 4 PSE

#国外机场
anti_join(airports, flights, by = c("faa" = "dest"))

## # A tibble: 1,357 x 8
##    faa   name      lat    lon   alt    tz dst   tzone 
##    <chr> <chr>   <dbl>  <dbl> <dbl> <dbl> <chr> <chr> 
##  1 04G   Lansdo~  41.1  -80.6  1044    -5 A     Ameri~
##  2 06A   Moton ~  32.5  -85.7   264    -6 A     Ameri~
##  3 06C   Schaum~  42.0  -88.1   801    -6 A     Ameri~
##  4 06N   Randal~  41.4  -74.4   523    -5 A     Ameri~
##  5 09J   Jekyll~  31.1  -81.4    11    -5 A     Ameri~
##  6 0A9   Elizab~  36.4  -82.2  1593    -5 A     Ameri~
##  7 0G6   Willia~  41.5  -84.5   730    -5 A     Ameri~
##  8 0G7   Finger~  42.9  -76.8   492    -5 A     Ameri~
##  9 0P2   Shoest~  39.8  -76.6  1000    -5 U     Ameri~
## 10 0S9   Jeffer~  48.1 -123.    108    -8 A     Ameri~
## # ... with 1,347 more rows
…
plane_carrier %>%
  group_by(tailnum) %>%
  filter(n() > 1) %>%
  left_join(airlines, by = "carrier") %>%
  arrange(tailnum, carrier)

## # A tibble: 34 x 3
## # Groups:   tailnum [17]
##    carrier tailnum name                    
##    <chr>   <chr>   <chr>                   
##  1 9E      N146PQ  Endeavor Air Inc.       
##  2 EV      N146PQ  ExpressJet Airlines Inc.
##  3 9E      N153PQ  Endeavor Air Inc.       
##  4 EV      N153PQ  ExpressJet Airlines Inc.
##  5 9E      N176PQ  Endeavor Air Inc.       
##  6 EV      N176PQ  ExpressJet Airlines Inc.
##  7 9E      N181PQ  Endeavor Air Inc.       
##  8 EV      N181PQ  ExpressJet Airlines Inc.
##  9 9E      N197PQ  Endeavor Air Inc.       
## 10 EV      N197PQ  ExpressJet Airlines Inc.
## # ... with 24 more rows
…
