R数据科学第11章
…
## [1] Dec Apr Jan Mar
## Levels: Dec Apr Jan Mar

#如果想要直接访问因子的有效水平集合，那么可以使用levels() 函数
levels(f2)

## [1] "Dec" "Apr" "Jan" "Mar"

综合社会调查

gss_cat

## # A tibble: 21,483 x 9
##     year marital    age race  rincome  partyid  relig 
##    <int> <fct>    <int> <fct> <fct>    <fct>    <fct> 
##  1  2000 Never m~    26 White $8000 t~ Ind,nea~ Prote~
##  2  2000 Divorced    48 White $8000 t~ Not str~ Prote~
##  3  2000 Widowed     67 White Not app~ Indepen~ Prote~
##  4  2000 Never m~    39 White Not app~ Ind,nea~ Ortho~
##  5  2000 Divorced    25 White Not app~ Not str~ None  
##  6  2000 Married     25 White $20000 ~ Strong ~ Prote~
##  7  2000 Never m~    36 White $25000 ~ Not str~ Chris~
##  8  2000 Divorced    44 White $7000 t~ Ind,nea~ Prote~
##  9  2000 Married     44 White $25000 ~ Not str~ Prote~
## 10  2000 Married     47 White $25000 ~ Strong ~ Prote~
## # ... with 21,473 more rows, and 2 more variables:
## #   denom <fct>, tvhours <int>
…
