R数据科学第10章
…
x <- c("apple", "banana", "pear")
str_count(x, "a")

## [1] 1 3 1

df %>%
  mutate(
    vowels = str_count(word, "[aeiou]"),
    consonants = str_count(word, "[^aeiou]")
  )

## # A tibble: 980 x 4
##    word         i vowels consonants
##    <chr>    <int>  <int>      <int>
##  1 a            1      1          0
##  2 able         2      2          2
##  3 about        3      3          2
##  4 absolute     4      4          4
##  5 accept       5      2          4
##  6 account      6      3          4
##  7 achieve      7      4          3
##  8 across       8      2          4
##  9 act          9      1          2
## 10 active      10      3          3
## # ... with 970 more rows
…
如果数据是保存在tibble中的，那么使用tidyr::extract()会更容易。这个函数的工作方式与str_match()函数类似，只是要求为每个分组提供一个名称，以作为新列放在tibble 中：

tibble(sentence = sentences) %>%
  tidyr::extract(
    sentence, c("article", "noun"), "(a|the) ([^ ]+)",
    remove = FALSE
  )

## # A tibble: 720 x 3
##    sentence                             article noun  
##    <chr>                                <chr>   <chr> 
##  1 The birch canoe slid on the smooth ~ the     smooth
##  2 Glue the sheet to the dark blue bac~ the     sheet 
##  3 It's easy to tell the depth of a we~ the     depth 
##  4 These days a chicken leg is a rare ~ a       chick~
##  5 Rice is often served in round bowls. <NA>    <NA>  
##  6 The juice of lemons makes fine punc~ <NA>    <NA>  
##  7 The box was thrown beside the parke~ the     parked
##  8 The hogs were fed chopped corn and ~ <NA>    <NA>  
##  9 Four hours of steady work faced us.  <NA>    <NA>  
## 10 Large size in stockings is hard to ~ <NA>    <NA>  
## # ... with 710 more rows
…
