R数据科学第一章
…
                R data science

        R数据科学第一章

        Mar 03, 2021

    [toc]

第 1 章　使用 ggplot2 进行数据可视化

library(tidyverse)
mpg

## # A tibble: 234 x 11
##    manufacturer model  displ  year   cyl trans  drv     cty   hwy
##    <chr>        <chr>  <dbl> <int> <int> <chr>  <chr> <int> <int>
##  1 audi         a4       1.8  1999     4 auto(~ f        18    29
##  2 audi         a4       1.8  1999     4 manua~ f        21    29
##  3 audi         a4       2    2008     4 manua~ f        20    31
##  4 audi         a4       2    2008     4 auto(~ f        21    30
##  5 audi         a4       2.8  1999     6 auto(~ f        16    26
##  6 audi         a4       2.8  1999     6 manua~ f        18    26
##  7 audi         a4       3.1  2008     6 auto(~ f        18    27
##  8 audi         a4 qu~   1.8  1999     4 manua~ 4        18    26
##  9 audi         a4 qu~   1.8  1999     4 auto(~ 4        16    25
## 10 audi         a4 qu~   2    2008     4 manua~ 4        20    28
## # ... with 224 more rows, and 2 more variables: fl <chr>,
## #   class <chr>
…
