R数据科学第7章
…
    使用tibble实现简单数据框

tibble是一种简单数据框，它对传统数据框的功能进行了一下修改，以便更易于使用。
vignette("tibble")
library(tidyverse)

创建tibble

as_tibble()函数可以将数据框转换为tibble。

as_tibble(iris)

## # A tibble: 150 x 5
##    Sepal.Length Sepal.Width Petal.Length Petal.Width
##           <dbl>       <dbl>        <dbl>       <dbl>
##  1          5.1         3.5          1.4         0.2
##  2          4.9         3            1.4         0.2
##  3          4.7         3.2          1.3         0.2
##  4          4.6         3.1          1.5         0.2
##  5          5           3.6          1.4         0.2
##  6          5.4         3.9          1.7         0.4
##  7          4.6         3.4          1.4         0.3
##  8          5           3.4          1.5         0.2
##  9          4.4         2.9          1.4         0.2
## 10          4.9         3.1          1.5         0.1
## # ... with 140 more rows, and 1 more variable:
## #   Species <fct>
…
对比tibble与data.frame

使用方法主要有两处不同：打印和子集。

打印

tibble打印只显示前10行结果，而且列也是适合屏幕的，并且还会打印列的类型。

有时需要比默认显示更多的输出，这是就要设置几个选项。
print()函数打印数据框

nycflights13::flights %>%
  print(n = 5, width = Inf)

## # A tibble: 336,776 x 19
##    year month   day dep_time sched_dep_time dep_delay
##   <int> <int> <int>    <int>          <int>     <dbl>
## 1  2013     1     1      517            515         2
## 2  2013     1     1      533            529         4
## 3  2013     1     1      542            540         2
## 4  2013     1     1      544            545        -1
## 5  2013     1     1      554            600        -6
##   arr_time sched_arr_time arr_delay carrier flight
##      <int>          <int>     <dbl> <chr>    <int>
## 1      830            819        11 UA        1545
## 2      850            830        20 UA        1714
## 3      923            850        33 AA        1141
## 4     1004           1022       -18 B6         725
## 5      812            837       -25 DL         461
##   tailnum origin dest  air_time distance  hour minute
##   <chr>   <chr>  <chr>    <dbl>    <dbl> <dbl>  <dbl>
## 1 N14228  EWR    IAH        227     1400     5     15
## 2 N24211  LGA    IAH        227     1416     5     29
## 3 N619AA  JFK    MIA        160     1089     5     40
## 4 N804JB  JFK    BQN        183     1576     5     45
## 5 N668DN  LGA    ATL        116      762     6      0
##   time_hour          
##   <dttm>             
## 1 2013-01-01 05:00:00
## 2 2013-01-01 05:00:00
## 3 2013-01-01 05:00:00
## 4 2013-01-01 05:00:00
## 5 2013-01-01 06:00:00
## # ... with 336,771 more rows
…
as_tibble(mtcars)

## # A tibble: 32 x 11
##      mpg   cyl  disp    hp  drat    wt  qsec    vs
##    <dbl> <dbl> <dbl> <dbl> <dbl> <dbl> <dbl> <dbl>
##  1  21       6  160    110  3.9   2.62  16.5     0
##  2  21       6  160    110  3.9   2.88  17.0     0
##  3  22.8     4  108     93  3.85  2.32  18.6     1
##  4  21.4     6  258    110  3.08  3.22  19.4     1
##  5  18.7     8  360    175  3.15  3.44  17.0     0
##  6  18.1     6  225    105  2.76  3.46  20.2     1
##  7  14.3     8  360    245  3.21  3.57  15.8     0
##  8  24.4     4  147.    62  3.69  3.19  20       1
##  9  22.8     4  141.    95  3.92  3.15  22.9     1
## 10  19.2     6  168.   123  3.92  3.44  18.3     1
## # ... with 22 more rows, and 3 more variables:
## #   am <dbl>, gear <dbl>, carb <dbl>
…
