R数据科学第8章
…
## Warning: 1000 parsing failures.
##  row col           expected     actual                                                                             file
## 1001   y 1/0/T/F/TRUE/FALSE 2015-01-16 'C:/Users/optiPlex 7080/Documents/R/win-library/4.0/readr/extdata/challenge.csv'
## 1002   y 1/0/T/F/TRUE/FALSE 2018-05-18 'C:/Users/optiPlex 7080/Documents/R/win-library/4.0/readr/extdata/challenge.csv'
## 1003   y 1/0/T/F/TRUE/FALSE 2015-09-05 'C:/Users/optiPlex 7080/Documents/R/win-library/4.0/readr/extdata/challenge.csv'
## 1004   y 1/0/T/F/TRUE/FALSE 2012-11-28 'C:/Users/optiPlex 7080/Documents/R/win-library/4.0/readr/extdata/challenge.csv'
## 1005   y 1/0/T/F/TRUE/FALSE 2020-01-13 'C:/Users/optiPlex 7080/Documents/R/win-library/4.0/readr/extdata/challenge.csv'
## .... ... .................. .......... ................................................................................
## See problems(...) for more details.

problems(challenge)

## # A tibble: 1,000 x 5
##      row col   expected   actual file    
##    <int> <chr> <chr>      <chr>  <chr>   
##  1  1001 y     1/0/T/F/T~ 2015-~ 'C:/Use~
##  2  1002 y     1/0/T/F/T~ 2018-~ 'C:/Use~
##  3  1003 y     1/0/T/F/T~ 2015-~ 'C:/Use~
##  4  1004 y     1/0/T/F/T~ 2012-~ 'C:/Use~
##  5  1005 y     1/0/T/F/T~ 2020-~ 'C:/Use~
##  6  1006 y     1/0/T/F/T~ 2016-~ 'C:/Use~
##  7  1007 y     1/0/T/F/T~ 2011-~ 'C:/Use~
##  8  1008 y     1/0/T/F/T~ 2020-~ 'C:/Use~
##  9  1009 y     1/0/T/F/T~ 2011-~ 'C:/Use~
## 10  1010 y     1/0/T/F/T~ 2010-~ 'C:/Use~
## # ... with 990 more rows
…
